4 bit multiplier/mult04_012_tb.vcd
$date
  Sat Jun 19 19:33:58 2021
$end
$version
  GHDL v0
$end
$timescale
  1 fs
$end
$var reg 4 ! a[3:0] $end
$var reg 4 " b[3:0] $end
$var reg 8 # p[7:0] $end
$scope module dut $end
$var reg 4 $ a[3:0] $end
$var reg 4 % b[3:0] $end
$var reg 8 & p[7:0] $end
$var reg 22 ' s[21:0] $end
$var reg 11 ( c[10:0] $end
$scope module d1 $end
$var reg 1 ) a $end
$var reg 1 * b $end
$var reg 1 + y $end
$upscope $end
$scope module d2 $end
$var reg 1 , a $end
$var reg 1 - b $end
$var reg 1 . y $end
$upscope $end
$scope module d3 $end
$var reg 1 / a $end
$var reg 1 0 b $end
$var reg 1 1 y $end
$upscope $end
$scope module d4 $end
$var reg 1 2 a $end
$var reg 1 3 b $end
$var reg 1 4 y $end
$upscope $end
$scope module d5 $end
$var reg 1 5 a $end
$var reg 1 6 b $end
$var reg 1 7 y $end
$upscope $end
$scope module d6 $end
$var reg 1 8 a $end
$var reg 1 9 b $end
$var reg 1 : y $end
$upscope $end
$scope module d7 $end
$var reg 1 ; a $end
$var reg 1 < b $end
$var reg 1 = y $end
$upscope $end
$scope module d8 $end
$var reg 1 > a $end
$var reg 1 ? b $end
$var reg 1 @ y $end
$upscope $end
$scope module d9 $end
$var reg 1 A a $end
$var reg 1 B b $end
$var reg 1 C y $end
$upscope $end
$scope module d10 $end
$var reg 1 D a $end
$var reg 1 E b $end
$var reg 1 F y $end
$upscope $end
$scope module d11 $end
$var reg 1 G a $end
$var reg 1 H b $end
$var reg 1 I y $end
$upscope $end
$scope module d12 $end
$var reg 1 J a $end
$var reg 1 K b $end
$var reg 1 L y $end
$upscope $end
$scope module d13 $end
$var reg 1 M a $end
$var reg 1 N b $end
$var reg 1 O y $end
$upscope $end
$scope module d14 $end
$var reg 1 P a $end
$var reg 1 Q b $end
$var reg 1 R y $end
$upscope $end
$scope module d15 $end
$var reg 1 S a $end
$var reg 1 T b $end
$var reg 1 U y $end
$upscope $end
$scope module d16 $end
$var reg 1 V a $end
$var reg 1 W b $end
$var reg 1 X y $end
$upscope $end
$scope module u1 $end
$var reg 1 Y a $end
$var reg 1 Z b $end
$var reg 1 [ s $end
$var reg 1 \ c $end
$upscope $end
$scope module u2 $end
$var reg 1 ] a $end
$var reg 1 ^ b $end
$var reg 1 _ s $end
$var reg 1 ` c $end
$upscope $end
$scope module u3 $end
$var reg 1 a a $end
$var reg 1 b b $end
$var reg 1 c s $end
$var reg 1 d c $end
$upscope $end
$scope module u4 $end
$var reg 1 e a $end
$var reg 1 f b $end
$var reg 1 g s $end
$var reg 1 h c $end
$upscope $end
$scope module k1 $end
$var reg 1 i a $end
$var reg 1 j b $end
$var reg 1 k cin $end
$var reg 1 l s $end
$var reg 1 m c $end
$upscope $end
$scope module k2 $end
$var reg 1 n a $end
$var reg 1 o b $end
$var reg 1 p cin $end
$var reg 1 q s $end
$var reg 1 r c $end
$upscope $end
$scope module k3 $end
$var reg 1 s a $end
$var reg 1 t b $end
$var reg 1 u cin $end
$var reg 1 v s $end
$var reg 1 w c $end
$upscope $end
$scope module k4 $end
$var reg 1 x a $end
$var reg 1 y b $end
$var reg 1 z cin $end
$var reg 1 { s $end
$var reg 1 | c $end
$upscope $end
$scope module k5 $end
$var reg 1 } a $end
$var reg 1 !" b $end
$var reg 1 "" cin $end
$var reg 1 #" s $end
$var reg 1 $" c $end
$upscope $end
$scope module k6 $end
$var reg 1 %" a $end
$var reg 1 &" b $end
$var reg 1 '" cin $end
$var reg 1 (" s $end
$var reg 1 )" c $end
$upscope $end
$scope module k7 $end
$var reg 1 *" a $end
$var reg 1 +" b $end
$var reg 1 ," cin $end
$var reg 1 -" s $end
$var reg 1 ." c $end
$upscope $end
$scope module k8 $end
$var reg 1 /" a $end
$var reg 1 0" b $end
$var reg 1 1" cin $end
$var reg 1 2" s $end
$var reg 1 3" c $end
$upscope $end
$upscope $end
$enddefinitions $end
#0
b0000 !
b0001 "
b00000000 #
b0000 $
b0001 %
b00000000 &
b0000000U00000000000000 '
b00000000000 (
0)
1*
0+
0,
0-
0.
0/
00
01
02
03
04
05
16
07
08
09
0:
0;
0<
0=
0>
0?
0@
0A
1B
0C
0D
0E
0F
0G
0H
0I
0J
0K
0L
0M
1N
0O
0P
0Q
0R
0S
0T
0U
0V
0W
0X
0Y
0Z
0[
0\
0]
0^
0_
0`
0a
0b
0c
0d
0e
0f
0g
0h
0i
0j
0k
0l
0m
0n
0o
0p
0q
0r
0s
0t
0u
0v
0w
0x
0y
0z
0{
0|
0}
0!"
0""
0#"
0$"
0%"
0&"
0'"
0("
0)"
0*"
0+"
0,"
0-"
0."
0/"
00"
01"
02"
03"
#100000000
b0001 !
b0110 "
b00000110 #
b0001 $
b0110 %
b00000110 &
b0000000U00000010000011 '
1)
0*
1,
1-
1.
1/
10
11
12
06
19
1<
0B
1E
1H
0N
1Q
1T
1Y
1[
1a
1c
1i
1l
#200000000
b0010 !
b1000 "
b00010000 #
b0010 $
b1000 %
b00010000 &
b0000010U00001001000000 '
0)
0,
0-
0.
0/
00
01
02
13
15
18
09
1;
0<
1>
1?
1@
0E
0H
1K
0Q
0T
1W
0Y
0[
1]
1_
0a
0c
0i
0l
1x
1{
1%"
1("
#300000000
b0100 !
b0011 "
b00001100 #
b0100 $
b0011 %
b00001100 &
b0000001U00110000000000 '
1*
1-
03
05
16
08
19
0;
0>
0?
0@
1A
1B
1C
1D
1E
1F
1G
1J
0K
1N
1Q
0W
0]
0_
1b
1c
1e
1g
1t
1v
0x
0{
0%"
0("
#400000000
b0011 !
b1001 "
b00011011 #
b0011 $
b1001 %
b00011011 &
b0000011U00001101001100 '
1)
1+
1,
0-
1/
12
13
14
15
17
18
09
1;
1>
1?
1@
0A
0C
0D
0E
0F
0G
0J
1K
0Q
1W
1Z
1[
1]
1_
0b
0c
1e
1g
1n
1q
1s
0t
1v
1x
1{
1%"
1("
#500000000
b0010 !
b0101 "
b00001010 #
b0010 $
b0101 %
b00001010 &
b0000001U00000100101000 '
0)
0+
0,
0/
10
02
03
04
1<
1=
0?
0@
1H
0K
1T
0W
0]
0_
0n
1o
0x
0{
0%"
0("
#600000000
b1000 !
b0110 "
b00110000 #
b1000 $
b0110 %
b00110000 &
b0110000U00000000000000 '
0*
1-
05
06
07
08
19
0;
0=
0>
0B
1E
1M
0N
1P
1Q
1R
1S
1U
1V
0Z
0[
0e
0g
0o
0q
0s
0v
1&"
1("
1+"
1-"
#700000000
b0000 "
b00000000 #
b0000 %
b00000000 &
b0000000U00000000000000 '
0-
00
09
0<
0E
0H
0Q
0R
0T
0U
0&"
0("
0+"
0-"
#800000000
b0011 !
b1110 "
b00101010 #
b0011 $
b1110 %
b00101010 &
b0000101U00000101110111 '
b00000001110 (
1)
1,
1-
1.
1/
10
11
12
13
14
15
18
19
1:
1;
1<
1=
1>
1?
1@
1E
1H
1K
0M
0P
1Q
0S
1T
0V
1W
1Y
1[
1]
1^
0_
1`
1e
1g
1i
1j
1m
1n
1o
1p
1q
1r
1s
1v
0x
0{
1}
1#"
0%"
0("
1*"
1-"
#900000000
b0100 !
b1111 "
b00111100 #
b0100 $
b1111 %
b00111100 &
b0000111U11110000000000 '
b00000000000 (
0)
1*
0,
0.
0/
01
02
04
05
16
08
0:
0;
0=
0>
0@
1A
1B
1C
1D
1F
1G
1I
1J
1L
1N
0Y
0[
0]
0^
0_
0`
1b
1c
1e
1g
0i
0j
0m
0n
0o
0p
0q
0r
0s
1t
1v
0w
0x
1y
0z
1{
0|
0}
1!"
0""
1#"
0$"
1%"
1("
1*"
1-"
0/"
02"
