Ripple carry adder/rca4bit_012_tb.vcd
$date
  Sun Jun 27 12:23:52 2021
$end
$version
  GHDL v0
$end
$timescale
  1 fs
$end
$var reg 4 ! a[3:0] $end
$var reg 4 " b[3:0] $end
$var reg 1 # cin $end
$var reg 4 $ s[3:0] $end
$var reg 1 % cout $end
$var reg 1 & s1 $end
$var reg 1 ' oddparity $end
$var reg 1 ( evenparity $end
$scope module dut $end
$var reg 4 ) a[3:0] $end
$var reg 4 * b[3:0] $end
$var reg 1 + cin $end
$var reg 4 , s[3:0] $end
$var reg 1 - cout $end
$var reg 4 . c[3:0] $end
$scope module u1 $end
$var reg 1 / c $end
$var reg 1 0 a $end
$var reg 1 1 b $end
$var reg 1 2 s $end
$var reg 1 3 cout $end
$upscope $end
$scope module u2 $end
$var reg 1 4 c $end
$var reg 1 5 a $end
$var reg 1 6 b $end
$var reg 1 7 s $end
$var reg 1 8 cout $end
$upscope $end
$scope module u3 $end
$var reg 1 9 c $end
$var reg 1 : a $end
$var reg 1 ; b $end
$var reg 1 < s $end
$var reg 1 = cout $end
$upscope $end
$scope module u4 $end
$var reg 1 > c $end
$var reg 1 ? a $end
$var reg 1 @ b $end
$var reg 1 A s $end
$var reg 1 B cout $end
$upscope $end
$upscope $end
$enddefinitions $end
#0
bUUUU !
bUUUU "
U#
bUUUU $
U%
U&
U'
U(
bUUUU )
bUUUU *
U+
bUUUU ,
U-
bUUUU .
U/
U0
U1
U2
U3
U4
U5
U6
U7
U8
U9
U:
U;
U<
U=
U>
U?
U@
UA
UB
#100000000
b0000 !
b0101 "
0#
b0101 $
0%
b0000 )
b0101 *
0+
b0101 ,
0-
b0000 .
0/
00
11
12
03
04
05
06
07
08
09
0:
1;
1<
0=
0>
0?
0@
0A
0B
#200000000
0&
#220000000
0'
1(
#230000000
b1111 !
b1101 "
b1100 $
1%
b1111 )
b1101 *
b1100 ,
1-
b1111 .
10
02
13
14
15
07
18
19
1:
1<
1=
1>
1?
1@
1A
1B
#330000000
b1011 !
b0011 "
b1110 $
0%
b1011 )
b0011 *
b1110 ,
0-
b0011 .
16
17
0:
0;
0=
0>
0@
1A
0B
#430000000
1&
#450000000
1'
0(
#460000000
b1111 !
b0010 $
1%
b1111 )
b0010 ,
1-
b1111 .
1:
0<
1=
1>
0A
1B
#560000000
b1011 !
b1010 "
1#
b0110 $
b1011 )
b1010 *
1+
b0110 ,
b1011 .
1/
01
0:
1<
0=
0>
1@
0A
#660000000
0&
#680000000
0'
1(
#690000000
b0001 !
b0101 "
b0111 $
0%
b0001 )
b0101 *
b0111 ,
0-
b0001 .
11
12
05
06
08
09
1;
1<
0=
0>
0?
0@
0A
0B
#790000000
b0000 !
b1111 "
b0000 $
1%
b0000 )
b1111 *
b0000 ,
1-
b1111 .
00
02
16
07
18
19
0<
1=
1>
1@
0A
1B
#890000000
#910000000
b1000 !
b1001 "
b0010 $
b1000 )
b1001 *
b0010 ,
b1001 .
06
17
08
09
0;
0<
0=
0>
1?
0A
#1010000000
1&
#1030000000
1'
0(
